…
activity$wkday <- wday(ymd(activity$date),label=TRUE)

act_sum <- aggregate(steps ~ date, activity, sum, na.rm=TRUE)

#Timeseries data

act_time <- group_by(activity, interval)
act.time.avg <-summarize(act_time, steps=mean(steps, na.rm = TRUE))
act.time.avg <- act.time.avg[!is.na(act.time.avg$steps),]
act.time.avg
```

```
## # A tibble: 288 x 2
##    interval  steps
##       <int>  <dbl>
##  1        0 1.72  
##  2        5 0.340 
##  3       10 0.132 
##  4       15 0.151 
##  5       20 0.0755
##  6       25 2.09  
##  7       30 0.528 
##  8       35 0.868 
##  9       40 0     
## 10       45 1.47  
## # ... with 278 more rows
```
…
activity.na.merged <- left_join(activity.na, activity.non.na, by= c("interval" = "interval")) %>%
  select(date,interval, steps.y,wkday) %>%
  rename(steps = steps.y)

#merge two datasets, NA and non-NA into one

activity.repl <- rbind(activity.non.na2,activity.na.merged)
activity.repl
```

```
## # A tibble: 17,568 x 4
##    steps date       interval wkday
##    <dbl> <chr>         <int> <ord>
##  1     0 2012-10-02        0 Tue  
##  2     0 2012-10-02        5 Tue  
##  3     0 2012-10-02       10 Tue  
##  4     0 2012-10-02       15 Tue  
##  5     0 2012-10-02       20 Tue  
##  6     0 2012-10-02       25 Tue  
##  7     0 2012-10-02       30 Tue  
##  8     0 2012-10-02       35 Tue  
##  9     0 2012-10-02       40 Tue  
## 10     0 2012-10-02       45 Tue  
## # ... with 17,558 more rows
```
…
